CRITICAL - 2022-08-10 00:11:50 --> Undefined variable $index_node1
#0 C:\xampp\htdocs\skripsi-rev\app\Models\Decission.php(209): CodeIgniter\Debug\Exceptions->errorHandler(2, 'Undefined varia...', 'C:\\xampp\\htdocs...', 209)
#1 C:\xampp\htdocs\skripsi-rev\app\Controllers\Decission.php(45): App\Models\Decission->node2()
#2 C:\xampp\htdocs\skripsi-rev\vendor\codeigniter4\framework\system\CodeIgniter.php(832): App\Controllers\Decission->detail()
#3 C:\xampp\htdocs\skripsi-rev\vendor\codeigniter4\framework\system\CodeIgniter.php(419): CodeIgniter\CodeIgniter->runController(Object(App\Controllers\Decission))
#4 C:\xampp\htdocs\skripsi-rev\vendor\codeigniter4\framework\system\CodeIgniter.php(326): CodeIgniter\CodeIgniter->handleRequest(NULL, Object(Config\Cache), false)
#5 C:\xampp\htdocs\skripsi-rev\public\index.php(37): CodeIgniter\CodeIgniter->run()
#6 C:\xampp\htdocs\skripsi-rev\vendor\codeigniter4\framework\system\Commands\Server\rewrite.php(43): require_once('C:\\xampp\\htdocs...')
#7 {main}
CRITICAL - 2022-08-10 05:04:30 --> Undefined variable $total
#0 C:\xampp\htdocs\skripsi-rev\app\Models\Decission.php(216): CodeIgniter\Debug\Exceptions->errorHandler(2, 'Undefined varia...', 'C:\\xampp\\htdocs...', 216)
#1 C:\xampp\htdocs\skripsi-rev\app\Controllers\Decission.php(45): App\Models\Decission->node2()
#2 C:\xampp\htdocs\skripsi-rev\vendor\codeigniter4\framework\system\CodeIgniter.php(832): App\Controllers\Decission->detail()
#3 C:\xampp\htdocs\skripsi-rev\vendor\codeigniter4\framework\system\CodeIgniter.php(419): CodeIgniter\CodeIgniter->runController(Object(App\Controllers\Decission))
#4 C:\xampp\htdocs\skripsi-rev\vendor\codeigniter4\framework\system\CodeIgniter.php(326): CodeIgniter\CodeIgniter->handleRequest(NULL, Object(Config\Cache), false)
#5 C:\xampp\htdocs\skripsi-rev\public\index.php(37): CodeIgniter\CodeIgniter->run()
#6 C:\xampp\htdocs\skripsi-rev\vendor\codeigniter4\framework\system\Commands\Server\rewrite.php(43): require_once('C:\\xampp\\htdocs...')
#7 {main}
ERROR - 2022-08-10 05:05:02 --> Illegal parameter data types varchar and row for operation '='
CRITICAL - 2022-08-10 05:05:02 --> Illegal parameter data types varchar and row for operation '='
#0 C:\xampp\htdocs\skripsi-rev\vendor\codeigniter4\framework\system\Database\MySQLi\Connection.php(292): mysqli->query('SELECT *\nFROM `...', 0)
#1 C:\xampp\htdocs\skripsi-rev\vendor\codeigniter4\framework\system\Database\BaseConnection.php(670): CodeIgniter\Database\MySQLi\Connection->execute('SELECT *\nFROM `...')
#2 C:\xampp\htdocs\skripsi-rev\vendor\codeigniter4\framework\system\Database\BaseConnection.php(598): CodeIgniter\Database\BaseConnection->simpleQuery('SELECT *\nFROM `...')
#3 C:\xampp\htdocs\skripsi-rev\vendor\codeigniter4\framework\system\Database\BaseBuilder.php(1455): CodeIgniter\Database\BaseConnection->query('SELECT *\nFROM `...', Array, false)
#4 C:\xampp\htdocs\skripsi-rev\vendor\codeigniter4\framework\system\Model.php(183): CodeIgniter\Database\BaseBuilder->get()
#5 C:\xampp\htdocs\skripsi-rev\vendor\codeigniter4\framework\system\BaseModel.php(584): CodeIgniter\Model->doFindAll(0, 0)
#6 C:\xampp\htdocs\skripsi-rev\app\Models\Decission.php(221): CodeIgniter\BaseModel->findAll()
#7 C:\xampp\htdocs\skripsi-rev\app\Controllers\Decission.php(45): App\Models\Decission->node2()
#8 C:\xampp\htdocs\skripsi-rev\vendor\codeigniter4\framework\system\CodeIgniter.php(832): App\Controllers\Decission->detail()
#9 C:\xampp\htdocs\skripsi-rev\vendor\codeigniter4\framework\system\CodeIgniter.php(419): CodeIgniter\CodeIgniter->runController(Object(App\Controllers\Decission))
#10 C:\xampp\htdocs\skripsi-rev\vendor\codeigniter4\framework\system\CodeIgniter.php(326): CodeIgniter\CodeIgniter->handleRequest(NULL, Object(Config\Cache), false)
#11 C:\xampp\htdocs\skripsi-rev\public\index.php(37): CodeIgniter\CodeIgniter->run()
#12 C:\xampp\htdocs\skripsi-rev\vendor\codeigniter4\framework\system\Commands\Server\rewrite.php(43): require_once('C:\\xampp\\htdocs...')
#13 {main}
CRITICAL - 2022-08-10 05:07:18 --> Undefined variable $key
#0 C:\xampp\htdocs\skripsi-rev\app\Models\Decission.php(226): CodeIgniter\Debug\Exceptions->errorHandler(2, 'Undefined varia...', 'C:\\xampp\\htdocs...', 226)
#1 C:\xampp\htdocs\skripsi-rev\app\Controllers\Decission.php(45): App\Models\Decission->node2()
#2 C:\xampp\htdocs\skripsi-rev\vendor\codeigniter4\framework\system\CodeIgniter.php(832): App\Controllers\Decission->detail()
#3 C:\xampp\htdocs\skripsi-rev\vendor\codeigniter4\framework\system\CodeIgniter.php(419): CodeIgniter\CodeIgniter->runController(Object(App\Controllers\Decission))
#4 C:\xampp\htdocs\skripsi-rev\vendor\codeigniter4\framework\system\CodeIgniter.php(326): CodeIgniter\CodeIgniter->handleRequest(NULL, Object(Config\Cache), false)
#5 C:\xampp\htdocs\skripsi-rev\public\index.php(37): CodeIgniter\CodeIgniter->run()
#6 C:\xampp\htdocs\skripsi-rev\vendor\codeigniter4\framework\system\Commands\Server\rewrite.php(43): require_once('C:\\xampp\\htdocs...')
#7 {main}
CRITICAL - 2022-08-10 05:07:37 --> array_push(): Argument #1 ($array) must be of type array, null given
#0 C:\xampp\htdocs\skripsi-rev\app\Models\Decission.php(248): array_push(NULL, Array)
#1 C:\xampp\htdocs\skripsi-rev\app\Controllers\Decission.php(45): App\Models\Decission->node2()
#2 C:\xampp\htdocs\skripsi-rev\vendor\codeigniter4\framework\system\CodeIgniter.php(832): App\Controllers\Decission->detail()
#3 C:\xampp\htdocs\skripsi-rev\vendor\codeigniter4\framework\system\CodeIgniter.php(419): CodeIgniter\CodeIgniter->runController(Object(App\Controllers\Decission))
#4 C:\xampp\htdocs\skripsi-rev\vendor\codeigniter4\framework\system\CodeIgniter.php(326): CodeIgniter\CodeIgniter->handleRequest(NULL, Object(Config\Cache), false)
#5 C:\xampp\htdocs\skripsi-rev\public\index.php(37): CodeIgniter\CodeIgniter->run()
#6 C:\xampp\htdocs\skripsi-rev\vendor\codeigniter4\framework\system\Commands\Server\rewrite.php(43): require_once('C:\\xampp\\htdocs...')
#7 {main}
CRITICAL - 2022-08-10 05:08:09 --> array_push(): Argument #1 ($array) must be of type array, null given
#0 C:\xampp\htdocs\skripsi-rev\app\Models\Decission.php(248): array_push(NULL, Array)
#1 C:\xampp\htdocs\skripsi-rev\app\Controllers\Decission.php(45): App\Models\Decission->node2()
#2 C:\xampp\htdocs\skripsi-rev\vendor\codeigniter4\framework\system\CodeIgniter.php(832): App\Controllers\Decission->detail()
#3 C:\xampp\htdocs\skripsi-rev\vendor\codeigniter4\framework\system\CodeIgniter.php(419): CodeIgniter\CodeIgniter->runController(Object(App\Controllers\Decission))
#4 C:\xampp\htdocs\skripsi-rev\vendor\codeigniter4\framework\system\CodeIgniter.php(326): CodeIgniter\CodeIgniter->handleRequest(NULL, Object(Config\Cache), false)
#5 C:\xampp\htdocs\skripsi-rev\public\index.php(37): CodeIgniter\CodeIgniter->run()
#6 C:\xampp\htdocs\skripsi-rev\vendor\codeigniter4\framework\system\Commands\Server\rewrite.php(43): require_once('C:\\xampp\\htdocs...')
#7 {main}
CRITICAL - 2022-08-10 05:13:16 --> You must set the database table to be used with your query.
#0 C:\xampp\htdocs\skripsi-rev\vendor\codeigniter4\framework\system\Model.php(545): CodeIgniter\Database\BaseConnection->table(NULL)
#1 C:\xampp\htdocs\skripsi-rev\vendor\codeigniter4\framework\system\Model.php(693): CodeIgniter\Model->builder()
#2 C:\xampp\htdocs\skripsi-rev\app\Models\Decission.php(238): CodeIgniter\Model->__get('entrophySemua')
#3 C:\xampp\htdocs\skripsi-rev\app\Controllers\Decission.php(45): App\Models\Decission->node2()
#4 C:\xampp\htdocs\skripsi-rev\vendor\codeigniter4\framework\system\CodeIgniter.php(832): App\Controllers\Decission->detail()
#5 C:\xampp\htdocs\skripsi-rev\vendor\codeigniter4\framework\system\CodeIgniter.php(419): CodeIgniter\CodeIgniter->runController(Object(App\Controllers\Decission))
#6 C:\xampp\htdocs\skripsi-rev\vendor\codeigniter4\framework\system\CodeIgniter.php(326): CodeIgniter\CodeIgniter->handleRequest(NULL, Object(Config\Cache), false)
#7 C:\xampp\htdocs\skripsi-rev\public\index.php(37): CodeIgniter\CodeIgniter->run()
#8 C:\xampp\htdocs\skripsi-rev\vendor\codeigniter4\framework\system\Commands\Server\rewrite.php(43): require_once('C:\\xampp\\htdocs...')
#9 {main}
CRITICAL - 2022-08-10 05:16:44 --> Undefined variable $node1
#0 C:\xampp\htdocs\skripsi-rev\app\Models\Decission.php(260): CodeIgniter\Debug\Exceptions->errorHandler(2, 'Undefined varia...', 'C:\\xampp\\htdocs...', 260)
#1 C:\xampp\htdocs\skripsi-rev\app\Controllers\Decission.php(45): App\Models\Decission->node2()
#2 C:\xampp\htdocs\skripsi-rev\vendor\codeigniter4\framework\system\CodeIgniter.php(832): App\Controllers\Decission->detail()
#3 C:\xampp\htdocs\skripsi-rev\vendor\codeigniter4\framework\system\CodeIgniter.php(419): CodeIgniter\CodeIgniter->runController(Object(App\Controllers\Decission))
#4 C:\xampp\htdocs\skripsi-rev\vendor\codeigniter4\framework\system\CodeIgniter.php(326): CodeIgniter\CodeIgniter->handleRequest(NULL, Object(Config\Cache), false)
#5 C:\xampp\htdocs\skripsi-rev\public\index.php(37): CodeIgniter\CodeIgniter->run()
#6 C:\xampp\htdocs\skripsi-rev\vendor\codeigniter4\framework\system\Commands\Server\rewrite.php(43): require_once('C:\\xampp\\htdocs...')
#7 {main}
CRITICAL - 2022-08-10 06:40:01 --> Undefined array key 0
#0 C:\xampp\htdocs\skripsi-rev\app\Models\Decission.php(390): CodeIgniter\Debug\Exceptions->errorHandler(2, 'Undefined array...', 'C:\\xampp\\htdocs...', 390)
#1 C:\xampp\htdocs\skripsi-rev\app\Controllers\Decission.php(46): App\Models\Decission->node3()
#2 C:\xampp\htdocs\skripsi-rev\vendor\codeigniter4\framework\system\CodeIgniter.php(832): App\Controllers\Decission->detail()
#3 C:\xampp\htdocs\skripsi-rev\vendor\codeigniter4\framework\system\CodeIgniter.php(419): CodeIgniter\CodeIgniter->runController(Object(App\Controllers\Decission))
#4 C:\xampp\htdocs\skripsi-rev\vendor\codeigniter4\framework\system\CodeIgniter.php(326): CodeIgniter\CodeIgniter->handleRequest(NULL, Object(Config\Cache), false)
#5 C:\xampp\htdocs\skripsi-rev\public\index.php(37): CodeIgniter\CodeIgniter->run()
#6 C:\xampp\htdocs\skripsi-rev\vendor\codeigniter4\framework\system\Commands\Server\rewrite.php(43): require_once('C:\\xampp\\htdocs...')
#7 {main}
ERROR - 2022-08-10 07:15:42 --> Illegal parameter data types varchar and row for operation '='
CRITICAL - 2022-08-10 07:15:42 --> Illegal parameter data types varchar and row for operation '='
#0 C:\xampp\htdocs\skripsi-rev\vendor\codeigniter4\framework\system\Database\MySQLi\Connection.php(292): mysqli->query('SELECT *\nFROM `...', 0)
#1 C:\xampp\htdocs\skripsi-rev\vendor\codeigniter4\framework\system\Database\BaseConnection.php(670): CodeIgniter\Database\MySQLi\Connection->execute('SELECT *\nFROM `...')
#2 C:\xampp\htdocs\skripsi-rev\vendor\codeigniter4\framework\system\Database\BaseConnection.php(598): CodeIgniter\Database\BaseConnection->simpleQuery('SELECT *\nFROM `...')
#3 C:\xampp\htdocs\skripsi-rev\vendor\codeigniter4\framework\system\Database\BaseBuilder.php(1455): CodeIgniter\Database\BaseConnection->query('SELECT *\nFROM `...', Array, false)
#4 C:\xampp\htdocs\skripsi-rev\vendor\codeigniter4\framework\system\Model.php(183): CodeIgniter\Database\BaseBuilder->get()
#5 C:\xampp\htdocs\skripsi-rev\vendor\codeigniter4\framework\system\BaseModel.php(584): CodeIgniter\Model->doFindAll(0, 0)
#6 C:\xampp\htdocs\skripsi-rev\app\Models\Decission.php(392): CodeIgniter\BaseModel->findAll()
#7 C:\xampp\htdocs\skripsi-rev\app\Controllers\Decission.php(46): App\Models\Decission->node3()
#8 C:\xampp\htdocs\skripsi-rev\vendor\codeigniter4\framework\system\CodeIgniter.php(832): App\Controllers\Decission->detail()
#9 C:\xampp\htdocs\skripsi-rev\vendor\codeigniter4\framework\system\CodeIgniter.php(419): CodeIgniter\CodeIgniter->runController(Object(App\Controllers\Decission))
#10 C:\xampp\htdocs\skripsi-rev\vendor\codeigniter4\framework\system\CodeIgniter.php(326): CodeIgniter\CodeIgniter->handleRequest(NULL, Object(Config\Cache), false)
#11 C:\xampp\htdocs\skripsi-rev\public\index.php(37): CodeIgniter\CodeIgniter->run()
#12 C:\xampp\htdocs\skripsi-rev\vendor\codeigniter4\framework\system\Commands\Server\rewrite.php(43): require_once('C:\\xampp\\htdocs...')
#13 {main}
CRITICAL - 2022-08-10 07:35:54 --> foreach() argument must be of type array|object, string given
#0 C:\xampp\htdocs\skripsi-rev\app\Models\Decission.php(380): CodeIgniter\Debug\Exceptions->errorHandler(2, 'foreach() argum...', 'C:\\xampp\\htdocs...', 380)
#1 C:\xampp\htdocs\skripsi-rev\app\Controllers\Decission.php(46): App\Models\Decission->node3()
#2 C:\xampp\htdocs\skripsi-rev\vendor\codeigniter4\framework\system\CodeIgniter.php(832): App\Controllers\Decission->detail()
#3 C:\xampp\htdocs\skripsi-rev\vendor\codeigniter4\framework\system\CodeIgniter.php(419): CodeIgniter\CodeIgniter->runController(Object(App\Controllers\Decission))
#4 C:\xampp\htdocs\skripsi-rev\vendor\codeigniter4\framework\system\CodeIgniter.php(326): CodeIgniter\CodeIgniter->handleRequest(NULL, Object(Config\Cache), false)
#5 C:\xampp\htdocs\skripsi-rev\public\index.php(37): CodeIgniter\CodeIgniter->run()
#6 C:\xampp\htdocs\skripsi-rev\vendor\codeigniter4\framework\system\Commands\Server\rewrite.php(43): require_once('C:\\xampp\\htdocs...')
#7 {main}
CRITICAL - 2022-08-10 07:36:09 --> syntax error, unexpected variable "$k2"
#0 C:\xampp\htdocs\skripsi-rev\vendor\codeigniter4\framework\system\Autoloader\Autoloader.php(241): CodeIgniter\Autoloader\Autoloader->includeFile('C:\\xampp\\htdocs...')
#1 C:\xampp\htdocs\skripsi-rev\vendor\codeigniter4\framework\system\Autoloader\Autoloader.php(219): CodeIgniter\Autoloader\Autoloader->loadInNamespace('App\\Models\\Deci...')
#2 C:\xampp\htdocs\skripsi-rev\vendor\codeigniter4\framework\system\Config\Factories.php(110): CodeIgniter\Autoloader\Autoloader->loadClass('App\\Models\\Deci...')
#3 C:\xampp\htdocs\skripsi-rev\vendor\codeigniter4\framework\system\Common.php(780): CodeIgniter\Config\Factories::__callStatic('models', Array)
#4 C:\xampp\htdocs\skripsi-rev\app\Controllers\Decission.php(14): model('../Models/Decis...')
#5 C:\xampp\htdocs\skripsi-rev\vendor\codeigniter4\framework\system\CodeIgniter.php(809): App\Controllers\Decission->__construct()
#6 C:\xampp\htdocs\skripsi-rev\vendor\codeigniter4\framework\system\CodeIgniter.php(410): CodeIgniter\CodeIgniter->createController()
#7 C:\xampp\htdocs\skripsi-rev\vendor\codeigniter4\framework\system\CodeIgniter.php(326): CodeIgniter\CodeIgniter->handleRequest(NULL, Object(Config\Cache), false)
#8 C:\xampp\htdocs\skripsi-rev\public\index.php(37): CodeIgniter\CodeIgniter->run()
#9 C:\xampp\htdocs\skripsi-rev\vendor\codeigniter4\framework\system\Commands\Server\rewrite.php(43): require_once('C:\\xampp\\htdocs...')
#10 {main}
CRITICAL - 2022-08-10 07:39:59 --> Illegal offset type
#0 C:\xampp\htdocs\skripsi-rev\app\Controllers\Decission.php(46): App\Models\Decission->node3()
#1 C:\xampp\htdocs\skripsi-rev\vendor\codeigniter4\framework\system\CodeIgniter.php(832): App\Controllers\Decission->detail()
#2 C:\xampp\htdocs\skripsi-rev\vendor\codeigniter4\framework\system\CodeIgniter.php(419): CodeIgniter\CodeIgniter->runController(Object(App\Controllers\Decission))
#3 C:\xampp\htdocs\skripsi-rev\vendor\codeigniter4\framework\system\CodeIgniter.php(326): CodeIgniter\CodeIgniter->handleRequest(NULL, Object(Config\Cache), false)
#4 C:\xampp\htdocs\skripsi-rev\public\index.php(37): CodeIgniter\CodeIgniter->run()
#5 C:\xampp\htdocs\skripsi-rev\vendor\codeigniter4\framework\system\Commands\Server\rewrite.php(43): require_once('C:\\xampp\\htdocs...')
#6 {main}
CRITICAL - 2022-08-10 08:21:32 --> syntax error, unexpected token "unset"
#0 C:\xampp\htdocs\skripsi-rev\vendor\codeigniter4\framework\system\Autoloader\Autoloader.php(241): CodeIgniter\Autoloader\Autoloader->includeFile('C:\\xampp\\htdocs...')
#1 C:\xampp\htdocs\skripsi-rev\vendor\codeigniter4\framework\system\Autoloader\Autoloader.php(219): CodeIgniter\Autoloader\Autoloader->loadInNamespace('App\\Models\\Deci...')
#2 C:\xampp\htdocs\skripsi-rev\vendor\codeigniter4\framework\system\Config\Factories.php(110): CodeIgniter\Autoloader\Autoloader->loadClass('App\\Models\\Deci...')
#3 C:\xampp\htdocs\skripsi-rev\vendor\codeigniter4\framework\system\Common.php(780): CodeIgniter\Config\Factories::__callStatic('models', Array)
#4 C:\xampp\htdocs\skripsi-rev\app\Controllers\Decission.php(14): model('../Models/Decis...')
#5 C:\xampp\htdocs\skripsi-rev\vendor\codeigniter4\framework\system\CodeIgniter.php(809): App\Controllers\Decission->__construct()
#6 C:\xampp\htdocs\skripsi-rev\vendor\codeigniter4\framework\system\CodeIgniter.php(410): CodeIgniter\CodeIgniter->createController()
#7 C:\xampp\htdocs\skripsi-rev\vendor\codeigniter4\framework\system\CodeIgniter.php(326): CodeIgniter\CodeIgniter->handleRequest(NULL, Object(Config\Cache), false)
#8 C:\xampp\htdocs\skripsi-rev\public\index.php(37): CodeIgniter\CodeIgniter->run()
#9 C:\xampp\htdocs\skripsi-rev\vendor\codeigniter4\framework\system\Commands\Server\rewrite.php(43): require_once('C:\\xampp\\htdocs...')
#10 {main}
CRITICAL - 2022-08-10 08:21:43 --> Undefined variable $index_node1
#0 C:\xampp\htdocs\skripsi-rev\app\Models\Decission.php(387): CodeIgniter\Debug\Exceptions->errorHandler(2, 'Undefined varia...', 'C:\\xampp\\htdocs...', 387)
#1 C:\xampp\htdocs\skripsi-rev\app\Controllers\Decission.php(46): App\Models\Decission->node3()
#2 C:\xampp\htdocs\skripsi-rev\vendor\codeigniter4\framework\system\CodeIgniter.php(832): App\Controllers\Decission->detail()
#3 C:\xampp\htdocs\skripsi-rev\vendor\codeigniter4\framework\system\CodeIgniter.php(419): CodeIgniter\CodeIgniter->runController(Object(App\Controllers\Decission))
#4 C:\xampp\htdocs\skripsi-rev\vendor\codeigniter4\framework\system\CodeIgniter.php(326): CodeIgniter\CodeIgniter->handleRequest(NULL, Object(Config\Cache), false)
#5 C:\xampp\htdocs\skripsi-rev\public\index.php(37): CodeIgniter\CodeIgniter->run()
#6 C:\xampp\htdocs\skripsi-rev\vendor\codeigniter4\framework\system\Commands\Server\rewrite.php(43): require_once('C:\\xampp\\htdocs...')
#7 {main}
CRITICAL - 2022-08-10 17:12:04 --> Undefined variable $index_node4
#0 C:\xampp\htdocs\skripsi-rev\app\Models\Decission.php(603): CodeIgniter\Debug\Exceptions->errorHandler(2, 'Undefined varia...', 'C:\\xampp\\htdocs...', 603)
#1 C:\xampp\htdocs\skripsi-rev\app\Controllers\Decission.php(47): App\Models\Decission->node4()
#2 C:\xampp\htdocs\skripsi-rev\vendor\codeigniter4\framework\system\CodeIgniter.php(832): App\Controllers\Decission->detail()
#3 C:\xampp\htdocs\skripsi-rev\vendor\codeigniter4\framework\system\CodeIgniter.php(419): CodeIgniter\CodeIgniter->runController(Object(App\Controllers\Decission))
#4 C:\xampp\htdocs\skripsi-rev\vendor\codeigniter4\framework\system\CodeIgniter.php(326): CodeIgniter\CodeIgniter->handleRequest(NULL, Object(Config\Cache), false)
#5 C:\xampp\htdocs\skripsi-rev\public\index.php(37): CodeIgniter\CodeIgniter->run()
#6 C:\xampp\htdocs\skripsi-rev\vendor\codeigniter4\framework\system\Commands\Server\rewrite.php(43): require_once('C:\\xampp\\htdocs...')
#7 {main}
CRITICAL - 2022-08-10 17:16:41 --> Undefined variable $inde
#0 C:\xampp\htdocs\skripsi-rev\app\Models\Decission.php(608): CodeIgniter\Debug\Exceptions->errorHandler(2, 'Undefined varia...', 'C:\\xampp\\htdocs...', 608)
#1 C:\xampp\htdocs\skripsi-rev\app\Controllers\Decission.php(47): App\Models\Decission->node4()
#2 C:\xampp\htdocs\skripsi-rev\vendor\codeigniter4\framework\system\CodeIgniter.php(832): App\Controllers\Decission->detail()
#3 C:\xampp\htdocs\skripsi-rev\vendor\codeigniter4\framework\system\CodeIgniter.php(419): CodeIgniter\CodeIgniter->runController(Object(App\Controllers\Decission))
#4 C:\xampp\htdocs\skripsi-rev\vendor\codeigniter4\framework\system\CodeIgniter.php(326): CodeIgniter\CodeIgniter->handleRequest(NULL, Object(Config\Cache), false)
#5 C:\xampp\htdocs\skripsi-rev\public\index.php(37): CodeIgniter\CodeIgniter->run()
#6 C:\xampp\htdocs\skripsi-rev\vendor\codeigniter4\framework\system\Commands\Server\rewrite.php(43): require_once('C:\\xampp\\htdocs...')
#7 {main}
CRITICAL - 2022-08-10 17:19:14 --> syntax error, unexpected token "}"
#0 C:\xampp\htdocs\skripsi-rev\vendor\codeigniter4\framework\system\Autoloader\Autoloader.php(241): CodeIgniter\Autoloader\Autoloader->includeFile('C:\\xampp\\htdocs...')
#1 C:\xampp\htdocs\skripsi-rev\vendor\codeigniter4\framework\system\Autoloader\Autoloader.php(219): CodeIgniter\Autoloader\Autoloader->loadInNamespace('App\\Models\\Deci...')
#2 C:\xampp\htdocs\skripsi-rev\vendor\codeigniter4\framework\system\Config\Factories.php(110): CodeIgniter\Autoloader\Autoloader->loadClass('App\\Models\\Deci...')
#3 C:\xampp\htdocs\skripsi-rev\vendor\codeigniter4\framework\system\Common.php(780): CodeIgniter\Config\Factories::__callStatic('models', Array)
#4 C:\xampp\htdocs\skripsi-rev\app\Controllers\Decission.php(14): model('../Models/Decis...')
#5 C:\xampp\htdocs\skripsi-rev\vendor\codeigniter4\framework\system\CodeIgniter.php(809): App\Controllers\Decission->__construct()
#6 C:\xampp\htdocs\skripsi-rev\vendor\codeigniter4\framework\system\CodeIgniter.php(410): CodeIgniter\CodeIgniter->createController()
#7 C:\xampp\htdocs\skripsi-rev\vendor\codeigniter4\framework\system\CodeIgniter.php(326): CodeIgniter\CodeIgniter->handleRequest(NULL, Object(Config\Cache), false)
#8 C:\xampp\htdocs\skripsi-rev\public\index.php(37): CodeIgniter\CodeIgniter->run()
#9 C:\xampp\htdocs\skripsi-rev\vendor\codeigniter4\framework\system\Commands\Server\rewrite.php(43): require_once('C:\\xampp\\htdocs...')
#10 {main}
CRITICAL - 2022-08-10 17:22:22 --> Undefined array key "model"
#0 C:\xampp\htdocs\skripsi-rev\app\Models\Decission.php(620): CodeIgniter\Debug\Exceptions->errorHandler(2, 'Undefined array...', 'C:\\xampp\\htdocs...', 620)
#1 C:\xampp\htdocs\skripsi-rev\app\Controllers\Decission.php(47): App\Models\Decission->node4()
#2 C:\xampp\htdocs\skripsi-rev\vendor\codeigniter4\framework\system\CodeIgniter.php(832): App\Controllers\Decission->detail()
#3 C:\xampp\htdocs\skripsi-rev\vendor\codeigniter4\framework\system\CodeIgniter.php(419): CodeIgniter\CodeIgniter->runController(Object(App\Controllers\Decission))
#4 C:\xampp\htdocs\skripsi-rev\vendor\codeigniter4\framework\system\CodeIgniter.php(326): CodeIgniter\CodeIgniter->handleRequest(NULL, Object(Config\Cache), false)
#5 C:\xampp\htdocs\skripsi-rev\public\index.php(37): CodeIgniter\CodeIgniter->run()
#6 C:\xampp\htdocs\skripsi-rev\vendor\codeigniter4\framework\system\Commands\Server\rewrite.php(43): require_once('C:\\xampp\\htdocs...')
#7 {main}
CRITICAL - 2022-08-10 17:22:37 --> Undefined array key "model"
#0 C:\xampp\htdocs\skripsi-rev\app\Models\Decission.php(620): CodeIgniter\Debug\Exceptions->errorHandler(2, 'Undefined array...', 'C:\\xampp\\htdocs...', 620)
#1 C:\xampp\htdocs\skripsi-rev\app\Controllers\Decission.php(47): App\Models\Decission->node4()
#2 C:\xampp\htdocs\skripsi-rev\vendor\codeigniter4\framework\system\CodeIgniter.php(832): App\Controllers\Decission->detail()
#3 C:\xampp\htdocs\skripsi-rev\vendor\codeigniter4\framework\system\CodeIgniter.php(419): CodeIgniter\CodeIgniter->runController(Object(App\Controllers\Decission))
#4 C:\xampp\htdocs\skripsi-rev\vendor\codeigniter4\framework\system\CodeIgniter.php(326): CodeIgniter\CodeIgniter->handleRequest(NULL, Object(Config\Cache), false)
#5 C:\xampp\htdocs\skripsi-rev\public\index.php(37): CodeIgniter\CodeIgniter->run()
#6 C:\xampp\htdocs\skripsi-rev\vendor\codeigniter4\framework\system\Commands\Server\rewrite.php(43): require_once('C:\\xampp\\htdocs...')
#7 {main}
CRITICAL - 2022-08-10 17:24:00 --> Undefined array key 0
#0 C:\xampp\htdocs\skripsi-rev\app\Models\Decission.php(620): CodeIgniter\Debug\Exceptions->errorHandler(2, 'Undefined array...', 'C:\\xampp\\htdocs...', 620)
#1 C:\xampp\htdocs\skripsi-rev\app\Controllers\Decission.php(47): App\Models\Decission->node4()
#2 C:\xampp\htdocs\skripsi-rev\vendor\codeigniter4\framework\system\CodeIgniter.php(832): App\Controllers\Decission->detail()
#3 C:\xampp\htdocs\skripsi-rev\vendor\codeigniter4\framework\system\CodeIgniter.php(419): CodeIgniter\CodeIgniter->runController(Object(App\Controllers\Decission))
#4 C:\xampp\htdocs\skripsi-rev\vendor\codeigniter4\framework\system\CodeIgniter.php(326): CodeIgniter\CodeIgniter->handleRequest(NULL, Object(Config\Cache), false)
#5 C:\xampp\htdocs\skripsi-rev\public\index.php(37): CodeIgniter\CodeIgniter->run()
#6 C:\xampp\htdocs\skripsi-rev\vendor\codeigniter4\framework\system\Commands\Server\rewrite.php(43): require_once('C:\\xampp\\htdocs...')
#7 {main}
CRITICAL - 2022-08-10 17:58:13 --> Undefined variable $total
#0 C:\xampp\htdocs\skripsi-rev\app\Views\decission_detail.php(24): CodeIgniter\Debug\Exceptions->errorHandler(2, 'Undefined varia...', 'C:\\xampp\\htdocs...', 24)
#1 C:\xampp\htdocs\skripsi-rev\vendor\codeigniter4\framework\system\View\View.php(210): include('C:\\xampp\\htdocs...')
#2 C:\xampp\htdocs\skripsi-rev\vendor\codeigniter4\framework\system\View\View.php(213): CodeIgniter\View\View->CodeIgniter\View\{closure}()
#3 C:\xampp\htdocs\skripsi-rev\vendor\codeigniter4\framework\system\Common.php(1089): CodeIgniter\View\View->render('decission_detai...', Array, true)
#4 C:\xampp\htdocs\skripsi-rev\app\Controllers\Decission.php(69): view('decission_detai...', Array)
#5 C:\xampp\htdocs\skripsi-rev\vendor\codeigniter4\framework\system\CodeIgniter.php(832): App\Controllers\Decission->detail()
#6 C:\xampp\htdocs\skripsi-rev\vendor\codeigniter4\framework\system\CodeIgniter.php(419): CodeIgniter\CodeIgniter->runController(Object(App\Controllers\Decission))
#7 C:\xampp\htdocs\skripsi-rev\vendor\codeigniter4\framework\system\CodeIgniter.php(326): CodeIgniter\CodeIgniter->handleRequest(NULL, Object(Config\Cache), false)
#8 C:\xampp\htdocs\skripsi-rev\public\index.php(37): CodeIgniter\CodeIgniter->run()
#9 C:\xampp\htdocs\skripsi-rev\vendor\codeigniter4\framework\system\Commands\Server\rewrite.php(43): require_once('C:\\xampp\\htdocs...')
#10 {main}
CRITICAL - 2022-08-10 17:59:17 --> Undefined array key "semua"
#0 C:\xampp\htdocs\skripsi-rev\app\Views\decission_detail.php(24): CodeIgniter\Debug\Exceptions->errorHandler(2, 'Undefined array...', 'C:\\xampp\\htdocs...', 24)
#1 C:\xampp\htdocs\skripsi-rev\vendor\codeigniter4\framework\system\View\View.php(210): include('C:\\xampp\\htdocs...')
#2 C:\xampp\htdocs\skripsi-rev\vendor\codeigniter4\framework\system\View\View.php(213): CodeIgniter\View\View->CodeIgniter\View\{closure}()
#3 C:\xampp\htdocs\skripsi-rev\vendor\codeigniter4\framework\system\Common.php(1089): CodeIgniter\View\View->render('decission_detai...', Array, true)
#4 C:\xampp\htdocs\skripsi-rev\app\Controllers\Decission.php(69): view('decission_detai...', Array)
#5 C:\xampp\htdocs\skripsi-rev\vendor\codeigniter4\framework\system\CodeIgniter.php(832): App\Controllers\Decission->detail()
#6 C:\xampp\htdocs\skripsi-rev\vendor\codeigniter4\framework\system\CodeIgniter.php(419): CodeIgniter\CodeIgniter->runController(Object(App\Controllers\Decission))
#7 C:\xampp\htdocs\skripsi-rev\vendor\codeigniter4\framework\system\CodeIgniter.php(326): CodeIgniter\CodeIgniter->handleRequest(NULL, Object(Config\Cache), false)
#8 C:\xampp\htdocs\skripsi-rev\public\index.php(37): CodeIgniter\CodeIgniter->run()
#9 C:\xampp\htdocs\skripsi-rev\vendor\codeigniter4\framework\system\Commands\Server\rewrite.php(43): require_once('C:\\xampp\\htdocs...')
#10 {main}
CRITICAL - 2022-08-10 18:00:35 --> Undefined variable $total
#0 C:\xampp\htdocs\skripsi-rev\app\Views\decission_detail.php(24): CodeIgniter\Debug\Exceptions->errorHandler(2, 'Undefined varia...', 'C:\\xampp\\htdocs...', 24)
#1 C:\xampp\htdocs\skripsi-rev\vendor\codeigniter4\framework\system\View\View.php(210): include('C:\\xampp\\htdocs...')
#2 C:\xampp\htdocs\skripsi-rev\vendor\codeigniter4\framework\system\View\View.php(213): CodeIgniter\View\View->CodeIgniter\View\{closure}()
#3 C:\xampp\htdocs\skripsi-rev\vendor\codeigniter4\framework\system\Common.php(1089): CodeIgniter\View\View->render('decission_detai...', Array, true)
#4 C:\xampp\htdocs\skripsi-rev\app\Controllers\Decission.php(71): view('decission_detai...', Array)
#5 C:\xampp\htdocs\skripsi-rev\vendor\codeigniter4\framework\system\CodeIgniter.php(832): App\Controllers\Decission->detail()
#6 C:\xampp\htdocs\skripsi-rev\vendor\codeigniter4\framework\system\CodeIgniter.php(419): CodeIgniter\CodeIgniter->runController(Object(App\Controllers\Decission))
#7 C:\xampp\htdocs\skripsi-rev\vendor\codeigniter4\framework\system\CodeIgniter.php(326): CodeIgniter\CodeIgniter->handleRequest(NULL, Object(Config\Cache), false)
#8 C:\xampp\htdocs\skripsi-rev\public\index.php(37): CodeIgniter\CodeIgniter->run()
#9 C:\xampp\htdocs\skripsi-rev\vendor\codeigniter4\framework\system\Commands\Server\rewrite.php(43): require_once('C:\\xampp\\htdocs...')
#10 {main}
CRITICAL - 2022-08-10 18:02:14 --> Trying to access array offset on value of type int
#0 C:\xampp\htdocs\skripsi-rev\app\Views\decission_detail.php(66): CodeIgniter\Debug\Exceptions->errorHandler(2, 'Trying to acces...', 'C:\\xampp\\htdocs...', 66)
#1 C:\xampp\htdocs\skripsi-rev\vendor\codeigniter4\framework\system\View\View.php(210): include('C:\\xampp\\htdocs...')
#2 C:\xampp\htdocs\skripsi-rev\vendor\codeigniter4\framework\system\View\View.php(213): CodeIgniter\View\View->CodeIgniter\View\{closure}()
#3 C:\xampp\htdocs\skripsi-rev\vendor\codeigniter4\framework\system\Common.php(1089): CodeIgniter\View\View->render('decission_detai...', Array, true)
#4 C:\xampp\htdocs\skripsi-rev\app\Controllers\Decission.php(71): view('decission_detai...', Array)
#5 C:\xampp\htdocs\skripsi-rev\vendor\codeigniter4\framework\system\CodeIgniter.php(832): App\Controllers\Decission->detail()
#6 C:\xampp\htdocs\skripsi-rev\vendor\codeigniter4\framework\system\CodeIgniter.php(419): CodeIgniter\CodeIgniter->runController(Object(App\Controllers\Decission))
#7 C:\xampp\htdocs\skripsi-rev\vendor\codeigniter4\framework\system\CodeIgniter.php(326): CodeIgniter\CodeIgniter->handleRequest(NULL, Object(Config\Cache), false)
#8 C:\xampp\htdocs\skripsi-rev\public\index.php(37): CodeIgniter\CodeIgniter->run()
#9 C:\xampp\htdocs\skripsi-rev\vendor\codeigniter4\framework\system\Commands\Server\rewrite.php(43): require_once('C:\\xampp\\htdocs...')
#10 {main}
CRITICAL - 2022-08-10 18:04:19 --> Undefined variable $node
#0 C:\xampp\htdocs\skripsi-rev\app\Views\decission_detail.php(72): CodeIgniter\Debug\Exceptions->errorHandler(2, 'Undefined varia...', 'C:\\xampp\\htdocs...', 72)
#1 C:\xampp\htdocs\skripsi-rev\vendor\codeigniter4\framework\system\View\View.php(210): include('C:\\xampp\\htdocs...')
#2 C:\xampp\htdocs\skripsi-rev\vendor\codeigniter4\framework\system\View\View.php(213): CodeIgniter\View\View->CodeIgniter\View\{closure}()
#3 C:\xampp\htdocs\skripsi-rev\vendor\codeigniter4\framework\system\Common.php(1089): CodeIgniter\View\View->render('decission_detai...', Array, true)
#4 C:\xampp\htdocs\skripsi-rev\app\Controllers\Decission.php(71): view('decission_detai...', Array)
#5 C:\xampp\htdocs\skripsi-rev\vendor\codeigniter4\framework\system\CodeIgniter.php(832): App\Controllers\Decission->detail()
#6 C:\xampp\htdocs\skripsi-rev\vendor\codeigniter4\framework\system\CodeIgniter.php(419): CodeIgniter\CodeIgniter->runController(Object(App\Controllers\Decission))
#7 C:\xampp\htdocs\skripsi-rev\vendor\codeigniter4\framework\system\CodeIgniter.php(326): CodeIgniter\CodeIgniter->handleRequest(NULL, Object(Config\Cache), false)
#8 C:\xampp\htdocs\skripsi-rev\public\index.php(37): CodeIgniter\CodeIgniter->run()
#9 C:\xampp\htdocs\skripsi-rev\vendor\codeigniter4\framework\system\Commands\Server\rewrite.php(43): require_once('C:\\xampp\\htdocs...')
#10 {main}
CRITICAL - 2022-08-10 18:04:42 --> Undefined array key "gain"
#0 C:\xampp\htdocs\skripsi-rev\app\Views\decission_detail.php(133): CodeIgniter\Debug\Exceptions->errorHandler(2, 'Undefined array...', 'C:\\xampp\\htdocs...', 133)
#1 C:\xampp\htdocs\skripsi-rev\vendor\codeigniter4\framework\system\View\View.php(210): include('C:\\xampp\\htdocs...')
#2 C:\xampp\htdocs\skripsi-rev\vendor\codeigniter4\framework\system\View\View.php(213): CodeIgniter\View\View->CodeIgniter\View\{closure}()
#3 C:\xampp\htdocs\skripsi-rev\vendor\codeigniter4\framework\system\Common.php(1089): CodeIgniter\View\View->render('decission_detai...', Array, true)
#4 C:\xampp\htdocs\skripsi-rev\app\Controllers\Decission.php(71): view('decission_detai...', Array)
#5 C:\xampp\htdocs\skripsi-rev\vendor\codeigniter4\framework\system\CodeIgniter.php(832): App\Controllers\Decission->detail()
#6 C:\xampp\htdocs\skripsi-rev\vendor\codeigniter4\framework\system\CodeIgniter.php(419): CodeIgniter\CodeIgniter->runController(Object(App\Controllers\Decission))
#7 C:\xampp\htdocs\skripsi-rev\vendor\codeigniter4\framework\system\CodeIgniter.php(326): CodeIgniter\CodeIgniter->handleRequest(NULL, Object(Config\Cache), false)
#8 C:\xampp\htdocs\skripsi-rev\public\index.php(37): CodeIgniter\CodeIgniter->run()
#9 C:\xampp\htdocs\skripsi-rev\vendor\codeigniter4\framework\system\Commands\Server\rewrite.php(43): require_once('C:\\xampp\\htdocs...')
#10 {main}
CRITICAL - 2022-08-10 22:30:25 --> Attempt to read property "attribute_node1" on null
#0 C:\xampp\htdocs\skripsi-rev\app\Controllers\Decission.php(45): CodeIgniter\Debug\Exceptions->errorHandler(2, 'Attempt to read...', 'C:\\xampp\\htdocs...', 45)
#1 C:\xampp\htdocs\skripsi-rev\vendor\codeigniter4\framework\system\CodeIgniter.php(832): App\Controllers\Decission->detail()
#2 C:\xampp\htdocs\skripsi-rev\vendor\codeigniter4\framework\system\CodeIgniter.php(419): CodeIgniter\CodeIgniter->runController(Object(App\Controllers\Decission))
#3 C:\xampp\htdocs\skripsi-rev\vendor\codeigniter4\framework\system\CodeIgniter.php(326): CodeIgniter\CodeIgniter->handleRequest(NULL, Object(Config\Cache), false)
#4 C:\xampp\htdocs\skripsi-rev\public\index.php(37): CodeIgniter\CodeIgniter->run()
#5 C:\xampp\htdocs\skripsi-rev\vendor\codeigniter4\framework\system\Commands\Server\rewrite.php(43): require_once('C:\\xampp\\htdocs...')
#6 {main}
CRITICAL - 2022-08-10 22:31:02 --> Attempt to read property "attribute_node1" on null
#0 C:\xampp\htdocs\skripsi-rev\app\Controllers\Decission.php(45): CodeIgniter\Debug\Exceptions->errorHandler(2, 'Attempt to read...', 'C:\\xampp\\htdocs...', 45)
#1 C:\xampp\htdocs\skripsi-rev\vendor\codeigniter4\framework\system\CodeIgniter.php(832): App\Controllers\Decission->detail()
#2 C:\xampp\htdocs\skripsi-rev\vendor\codeigniter4\framework\system\CodeIgniter.php(419): CodeIgniter\CodeIgniter->runController(Object(App\Controllers\Decission))
#3 C:\xampp\htdocs\skripsi-rev\vendor\codeigniter4\framework\system\CodeIgniter.php(326): CodeIgniter\CodeIgniter->handleRequest(NULL, Object(Config\Cache), false)
#4 C:\xampp\htdocs\skripsi-rev\public\index.php(37): CodeIgniter\CodeIgniter->run()
#5 C:\xampp\htdocs\skripsi-rev\vendor\codeigniter4\framework\system\Commands\Server\rewrite.php(43): require_once('C:\\xampp\\htdocs...')
#6 {main}
CRITICAL - 2022-08-10 22:31:04 --> Attempt to read property "attribute_node1" on null
#0 C:\xampp\htdocs\skripsi-rev\app\Controllers\Decission.php(45): CodeIgniter\Debug\Exceptions->errorHandler(2, 'Attempt to read...', 'C:\\xampp\\htdocs...', 45)
#1 C:\xampp\htdocs\skripsi-rev\vendor\codeigniter4\framework\system\CodeIgniter.php(832): App\Controllers\Decission->detail()
#2 C:\xampp\htdocs\skripsi-rev\vendor\codeigniter4\framework\system\CodeIgniter.php(419): CodeIgniter\CodeIgniter->runController(Object(App\Controllers\Decission))
#3 C:\xampp\htdocs\skripsi-rev\vendor\codeigniter4\framework\system\CodeIgniter.php(326): CodeIgniter\CodeIgniter->handleRequest(NULL, Object(Config\Cache), false)
#4 C:\xampp\htdocs\skripsi-rev\public\index.php(37): CodeIgniter\CodeIgniter->run()
#5 C:\xampp\htdocs\skripsi-rev\vendor\codeigniter4\framework\system\Commands\Server\rewrite.php(43): require_once('C:\\xampp\\htdocs...')
#6 {main}
CRITICAL - 2022-08-10 22:32:07 --> syntax error, unexpected variable "$this"
#0 C:\xampp\htdocs\skripsi-rev\vendor\codeigniter4\framework\system\Autoloader\Autoloader.php(241): CodeIgniter\Autoloader\Autoloader->includeFile('C:\\xampp\\htdocs...')
#1 C:\xampp\htdocs\skripsi-rev\vendor\codeigniter4\framework\system\Autoloader\Autoloader.php(219): CodeIgniter\Autoloader\Autoloader->loadInNamespace('App\\Models\\Meth...')
#2 C:\xampp\htdocs\skripsi-rev\vendor\codeigniter4\framework\system\Config\Factories.php(110): CodeIgniter\Autoloader\Autoloader->loadClass('App\\Models\\Meth...')
#3 C:\xampp\htdocs\skripsi-rev\vendor\codeigniter4\framework\system\Common.php(780): CodeIgniter\Config\Factories::__callStatic('models', Array)
#4 C:\xampp\htdocs\skripsi-rev\app\Controllers\Decission.php(15): model('../Models/Metho...')
#5 C:\xampp\htdocs\skripsi-rev\vendor\codeigniter4\framework\system\CodeIgniter.php(809): App\Controllers\Decission->__construct()
#6 C:\xampp\htdocs\skripsi-rev\vendor\codeigniter4\framework\system\CodeIgniter.php(410): CodeIgniter\CodeIgniter->createController()
#7 C:\xampp\htdocs\skripsi-rev\vendor\codeigniter4\framework\system\CodeIgniter.php(326): CodeIgniter\CodeIgniter->handleRequest(NULL, Object(Config\Cache), false)
#8 C:\xampp\htdocs\skripsi-rev\public\index.php(37): CodeIgniter\CodeIgniter->run()
#9 C:\xampp\htdocs\skripsi-rev\vendor\codeigniter4\framework\system\Commands\Server\rewrite.php(43): require_once('C:\\xampp\\htdocs...')
#10 {main}
CRITICAL - 2022-08-10 22:32:14 --> Undefined array key ""
#0 C:\xampp\htdocs\skripsi-rev\app\Models\Methode.php(88): CodeIgniter\Debug\Exceptions->errorHandler(2, 'Undefined array...', 'C:\\xampp\\htdocs...', 88)
#1 C:\xampp\htdocs\skripsi-rev\app\Models\Methode.php(29): App\Models\Methode->node()
#2 C:\xampp\htdocs\skripsi-rev\vendor\codeigniter4\framework\system\Config\Factories.php(110): App\Models\Methode->__construct(NULL)
#3 C:\xampp\htdocs\skripsi-rev\vendor\codeigniter4\framework\system\Common.php(780): CodeIgniter\Config\Factories::__callStatic('models', Array)
#4 C:\xampp\htdocs\skripsi-rev\app\Controllers\Decission.php(15): model('../Models/Metho...')
#5 C:\xampp\htdocs\skripsi-rev\vendor\codeigniter4\framework\system\CodeIgniter.php(809): App\Controllers\Decission->__construct()
#6 C:\xampp\htdocs\skripsi-rev\vendor\codeigniter4\framework\system\CodeIgniter.php(410): CodeIgniter\CodeIgniter->createController()
#7 C:\xampp\htdocs\skripsi-rev\vendor\codeigniter4\framework\system\CodeIgniter.php(326): CodeIgniter\CodeIgniter->handleRequest(NULL, Object(Config\Cache), false)
#8 C:\xampp\htdocs\skripsi-rev\public\index.php(37): CodeIgniter\CodeIgniter->run()
#9 C:\xampp\htdocs\skripsi-rev\vendor\codeigniter4\framework\system\Commands\Server\rewrite.php(43): require_once('C:\\xampp\\htdocs...')
#10 {main}
CRITICAL - 2022-08-10 22:34:04 --> Call to a member function findAll() on null
#0 C:\xampp\htdocs\skripsi-rev\app\Models\Methode.php(29): App\Models\Methode->semua()
#1 C:\xampp\htdocs\skripsi-rev\vendor\codeigniter4\framework\system\Config\Factories.php(110): App\Models\Methode->__construct(NULL)
#2 C:\xampp\htdocs\skripsi-rev\vendor\codeigniter4\framework\system\Common.php(780): CodeIgniter\Config\Factories::__callStatic('models', Array)
#3 C:\xampp\htdocs\skripsi-rev\app\Controllers\Decission.php(15): model('../Models/Metho...')
#4 C:\xampp\htdocs\skripsi-rev\vendor\codeigniter4\framework\system\CodeIgniter.php(809): App\Controllers\Decission->__construct()
#5 C:\xampp\htdocs\skripsi-rev\vendor\codeigniter4\framework\system\CodeIgniter.php(410): CodeIgniter\CodeIgniter->createController()
#6 C:\xampp\htdocs\skripsi-rev\vendor\codeigniter4\framework\system\CodeIgniter.php(326): CodeIgniter\CodeIgniter->handleRequest(NULL, Object(Config\Cache), false)
#7 C:\xampp\htdocs\skripsi-rev\public\index.php(37): CodeIgniter\CodeIgniter->run()
#8 C:\xampp\htdocs\skripsi-rev\vendor\codeigniter4\framework\system\Commands\Server\rewrite.php(43): require_once('C:\\xampp\\htdocs...')
#9 {main}
CRITICAL - 2022-08-10 22:34:36 --> array_push(): Argument #1 ($array) must be of type array, null given
#0 C:\xampp\htdocs\skripsi-rev\app\Models\Methode.php(429): array_push(NULL, 210)
#1 C:\xampp\htdocs\skripsi-rev\app\Models\Methode.php(30): App\Models\Methode->semua()
#2 C:\xampp\htdocs\skripsi-rev\vendor\codeigniter4\framework\system\Config\Factories.php(110): App\Models\Methode->__construct(NULL)
#3 C:\xampp\htdocs\skripsi-rev\vendor\codeigniter4\framework\system\Common.php(780): CodeIgniter\Config\Factories::__callStatic('models', Array)
#4 C:\xampp\htdocs\skripsi-rev\app\Controllers\Decission.php(15): model('../Models/Metho...')
#5 C:\xampp\htdocs\skripsi-rev\vendor\codeigniter4\framework\system\CodeIgniter.php(809): App\Controllers\Decission->__construct()
#6 C:\xampp\htdocs\skripsi-rev\vendor\codeigniter4\framework\system\CodeIgniter.php(410): CodeIgniter\CodeIgniter->createController()
#7 C:\xampp\htdocs\skripsi-rev\vendor\codeigniter4\framework\system\CodeIgniter.php(326): CodeIgniter\CodeIgniter->handleRequest(NULL, Object(Config\Cache), false)
#8 C:\xampp\htdocs\skripsi-rev\public\index.php(37): CodeIgniter\CodeIgniter->run()
#9 C:\xampp\htdocs\skripsi-rev\vendor\codeigniter4\framework\system\Commands\Server\rewrite.php(43): require_once('C:\\xampp\\htdocs...')
#10 {main}
CRITICAL - 2022-08-10 22:34:48 --> array_push(): Argument #1 ($array) must be of type array, null given
#0 C:\xampp\htdocs\skripsi-rev\app\Models\Methode.php(429): array_push(NULL, 210)
#1 C:\xampp\htdocs\skripsi-rev\app\Models\Methode.php(30): App\Models\Methode->semua()
#2 C:\xampp\htdocs\skripsi-rev\vendor\codeigniter4\framework\system\Config\Factories.php(110): App\Models\Methode->__construct(NULL)
#3 C:\xampp\htdocs\skripsi-rev\vendor\codeigniter4\framework\system\Common.php(780): CodeIgniter\Config\Factories::__callStatic('models', Array)
#4 C:\xampp\htdocs\skripsi-rev\app\Controllers\Decission.php(15): model('../Models/Metho...')
#5 C:\xampp\htdocs\skripsi-rev\vendor\codeigniter4\framework\system\CodeIgniter.php(809): App\Controllers\Decission->__construct()
#6 C:\xampp\htdocs\skripsi-rev\vendor\codeigniter4\framework\system\CodeIgniter.php(410): CodeIgniter\CodeIgniter->createController()
#7 C:\xampp\htdocs\skripsi-rev\vendor\codeigniter4\framework\system\CodeIgniter.php(326): CodeIgniter\CodeIgniter->handleRequest(NULL, Object(Config\Cache), false)
#8 C:\xampp\htdocs\skripsi-rev\public\index.php(37): CodeIgniter\CodeIgniter->run()
#9 C:\xampp\htdocs\skripsi-rev\vendor\codeigniter4\framework\system\Commands\Server\rewrite.php(43): require_once('C:\\xampp\\htdocs...')
#10 {main}
CRITICAL - 2022-08-10 22:34:54 --> array_push(): Argument #1 ($array) must be of type array, null given
#0 C:\xampp\htdocs\skripsi-rev\app\Models\Methode.php(430): array_push(NULL, 0.952)
#1 C:\xampp\htdocs\skripsi-rev\app\Models\Methode.php(31): App\Models\Methode->semua()
#2 C:\xampp\htdocs\skripsi-rev\vendor\codeigniter4\framework\system\Config\Factories.php(110): App\Models\Methode->__construct(NULL)
#3 C:\xampp\htdocs\skripsi-rev\vendor\codeigniter4\framework\system\Common.php(780): CodeIgniter\Config\Factories::__callStatic('models', Array)
#4 C:\xampp\htdocs\skripsi-rev\app\Controllers\Decission.php(15): model('../Models/Metho...')
#5 C:\xampp\htdocs\skripsi-rev\vendor\codeigniter4\framework\system\CodeIgniter.php(809): App\Controllers\Decission->__construct()
#6 C:\xampp\htdocs\skripsi-rev\vendor\codeigniter4\framework\system\CodeIgniter.php(410): CodeIgniter\CodeIgniter->createController()
#7 C:\xampp\htdocs\skripsi-rev\vendor\codeigniter4\framework\system\CodeIgniter.php(326): CodeIgniter\CodeIgniter->handleRequest(NULL, Object(Config\Cache), false)
#8 C:\xampp\htdocs\skripsi-rev\public\index.php(37): CodeIgniter\CodeIgniter->run()
#9 C:\xampp\htdocs\skripsi-rev\vendor\codeigniter4\framework\system\Commands\Server\rewrite.php(43): require_once('C:\\xampp\\htdocs...')
#10 {main}
CRITICAL - 2022-08-10 22:35:08 --> foreach() argument must be of type array|object, null given
#0 C:\xampp\htdocs\skripsi-rev\app\Models\Methode.php(436): CodeIgniter\Debug\Exceptions->errorHandler(2, 'foreach() argum...', 'C:\\xampp\\htdocs...', 436)
#1 C:\xampp\htdocs\skripsi-rev\app\Models\Methode.php(33): App\Models\Methode->node1()
#2 C:\xampp\htdocs\skripsi-rev\vendor\codeigniter4\framework\system\Config\Factories.php(110): App\Models\Methode->__construct(NULL)
#3 C:\xampp\htdocs\skripsi-rev\vendor\codeigniter4\framework\system\Common.php(780): CodeIgniter\Config\Factories::__callStatic('models', Array)
#4 C:\xampp\htdocs\skripsi-rev\app\Controllers\Decission.php(15): model('../Models/Metho...')
#5 C:\xampp\htdocs\skripsi-rev\vendor\codeigniter4\framework\system\CodeIgniter.php(809): App\Controllers\Decission->__construct()
#6 C:\xampp\htdocs\skripsi-rev\vendor\codeigniter4\framework\system\CodeIgniter.php(410): CodeIgniter\CodeIgniter->createController()
#7 C:\xampp\htdocs\skripsi-rev\vendor\codeigniter4\framework\system\CodeIgniter.php(326): CodeIgniter\CodeIgniter->handleRequest(NULL, Object(Config\Cache), false)
#8 C:\xampp\htdocs\skripsi-rev\public\index.php(37): CodeIgniter\CodeIgniter->run()
#9 C:\xampp\htdocs\skripsi-rev\vendor\codeigniter4\framework\system\Commands\Server\rewrite.php(43): require_once('C:\\xampp\\htdocs...')
#10 {main}
CRITICAL - 2022-08-10 22:35:37 --> array_push(): Argument #1 ($array) must be of type array, null given
#0 C:\xampp\htdocs\skripsi-rev\app\Models\Methode.php(103): array_push(NULL, Array)
#1 C:\xampp\htdocs\skripsi-rev\app\Models\Methode.php(59): App\Models\Methode->node()
#2 C:\xampp\htdocs\skripsi-rev\vendor\codeigniter4\framework\system\Config\Factories.php(110): App\Models\Methode->__construct(NULL)
#3 C:\xampp\htdocs\skripsi-rev\vendor\codeigniter4\framework\system\Common.php(780): CodeIgniter\Config\Factories::__callStatic('models', Array)
#4 C:\xampp\htdocs\skripsi-rev\app\Controllers\Decission.php(15): model('../Models/Metho...')
#5 C:\xampp\htdocs\skripsi-rev\vendor\codeigniter4\framework\system\CodeIgniter.php(809): App\Controllers\Decission->__construct()
#6 C:\xampp\htdocs\skripsi-rev\vendor\codeigniter4\framework\system\CodeIgniter.php(410): CodeIgniter\CodeIgniter->createController()
#7 C:\xampp\htdocs\skripsi-rev\vendor\codeigniter4\framework\system\CodeIgniter.php(326): CodeIgniter\CodeIgniter->handleRequest(NULL, Object(Config\Cache), false)
#8 C:\xampp\htdocs\skripsi-rev\public\index.php(37): CodeIgniter\CodeIgniter->run()
#9 C:\xampp\htdocs\skripsi-rev\vendor\codeigniter4\framework\system\Commands\Server\rewrite.php(43): require_once('C:\\xampp\\htdocs...')
#10 {main}
CRITICAL - 2022-08-10 22:36:10 --> Attempt to read property "attribute_node1" on null
#0 C:\xampp\htdocs\skripsi-rev\app\Controllers\Decission.php(45): CodeIgniter\Debug\Exceptions->errorHandler(2, 'Attempt to read...', 'C:\\xampp\\htdocs...', 45)
#1 C:\xampp\htdocs\skripsi-rev\vendor\codeigniter4\framework\system\CodeIgniter.php(832): App\Controllers\Decission->detail()
#2 C:\xampp\htdocs\skripsi-rev\vendor\codeigniter4\framework\system\CodeIgniter.php(419): CodeIgniter\CodeIgniter->runController(Object(App\Controllers\Decission))
#3 C:\xampp\htdocs\skripsi-rev\vendor\codeigniter4\framework\system\CodeIgniter.php(326): CodeIgniter\CodeIgniter->handleRequest(NULL, Object(Config\Cache), false)
#4 C:\xampp\htdocs\skripsi-rev\public\index.php(37): CodeIgniter\CodeIgniter->run()
#5 C:\xampp\htdocs\skripsi-rev\vendor\codeigniter4\framework\system\Commands\Server\rewrite.php(43): require_once('C:\\xampp\\htdocs...')
#6 {main}
CRITICAL - 2022-08-10 23:24:59 --> Undefined array key 1
#0 C:\xampp\htdocs\skripsi-rev\app\Models\Methode.php(553): CodeIgniter\Debug\Exceptions->errorHandler(2, 'Undefined array...', 'C:\\xampp\\htdocs...', 553)
#1 C:\xampp\htdocs\skripsi-rev\app\Controllers\Decission.php(45): App\Models\Methode->decission_tree()
#2 C:\xampp\htdocs\skripsi-rev\vendor\codeigniter4\framework\system\CodeIgniter.php(832): App\Controllers\Decission->detail()
#3 C:\xampp\htdocs\skripsi-rev\vendor\codeigniter4\framework\system\CodeIgniter.php(419): CodeIgniter\CodeIgniter->runController(Object(App\Controllers\Decission))
#4 C:\xampp\htdocs\skripsi-rev\vendor\codeigniter4\framework\system\CodeIgniter.php(326): CodeIgniter\CodeIgniter->handleRequest(NULL, Object(Config\Cache), false)
#5 C:\xampp\htdocs\skripsi-rev\public\index.php(37): CodeIgniter\CodeIgniter->run()
#6 C:\xampp\htdocs\skripsi-rev\vendor\codeigniter4\framework\system\Commands\Server\rewrite.php(43): require_once('C:\\xampp\\htdocs...')
#7 {main}
